V34 :0x24 util
18 ../common/util.f03 S624 0
05/25/2020  10:04:14
use omp_lib_kinds public 0 indirect
use omp_lib public 0 direct
enduse
D 116 23 10 1 55 58 1 1 0 0 1
 11 56 11 11 56 57
D 119 23 10 1 59 62 1 1 0 0 1
 11 60 11 11 60 61
S 624 24 0 0 0 9 1 0 5014 10005 0 A 0 0 0 0 B 0 1 0 0 0 0 0 0 0 0 0 0 0 0 0 0 0 0 0 0 0 1 0 0 0 0 0 0 util
S 958 23 5 0 0 0 961 624 7471 0 0 A 0 0 0 0 B 0 14 0 0 0 0 0 0 0 0 0 0 0 0 0 0 0 0 0 0 0 0 0 0 0 0 0 0 swap
S 959 7 3 3 0 116 1 958 7476 20400004 10003000 A 0 0 0 0 B 0 14 0 0 0 0 0 0 0 0 0 0 0 0 0 0 0 0 0 0 0 0 0 0 0 0 0 0 a
S 960 7 3 3 0 119 1 958 7478 20000004 10003000 A 0 0 0 0 B 0 14 0 0 0 0 0 0 0 0 0 0 0 0 0 0 0 0 0 0 0 0 0 0 0 0 0 0 b
S 961 14 5 0 0 0 1 958 7471 20000000 400000 A 0 0 0 0 B 0 0 0 0 0 0 0 153 2 0 0 0 0 0 0 0 0 0 0 0 0 8 0 624 0 0 0 0 swap
F 961 2 959 960
S 962 6 1 0 0 7 1 958 7184 40800006 3000 A 0 0 0 0 B 0 14 0 0 0 0 0 0 0 0 0 0 0 0 0 0 0 0 0 0 0 0 0 0 0 0 0 0 z_b_1
S 963 6 1 0 0 7 1 958 7480 40800006 3000 A 0 0 0 0 B 0 14 0 0 0 0 0 0 0 0 0 0 0 0 0 0 0 0 0 0 0 0 0 0 0 0 0 0 z_b_2
S 964 6 1 0 0 7 1 958 7486 40800006 3000 A 0 0 0 0 B 0 14 0 0 0 0 0 0 0 0 0 0 0 0 0 0 0 0 0 0 0 0 0 0 0 0 0 0 z_b_3
S 965 6 1 0 0 7 1 958 7492 40800006 3000 A 0 0 0 0 B 0 14 0 0 0 0 0 0 0 0 0 0 0 0 0 0 0 0 0 0 0 0 0 0 0 0 0 0 z_e_61
S 966 6 1 0 0 7 1 958 7499 40800006 3000 A 0 0 0 0 B 0 14 0 0 0 0 0 0 0 0 0 0 0 0 0 0 0 0 0 0 0 0 0 0 0 0 0 0 z_b_5
S 967 6 1 0 0 7 1 958 7505 40800006 3000 A 0 0 0 0 B 0 14 0 0 0 0 0 0 0 0 0 0 0 0 0 0 0 0 0 0 0 0 0 0 0 0 0 0 z_b_6
S 968 6 1 0 0 7 1 958 7511 40800006 3000 A 0 0 0 0 B 0 14 0 0 0 0 0 0 0 0 0 0 0 0 0 0 0 0 0 0 0 0 0 0 0 0 0 0 z_b_7
S 969 6 1 0 0 7 1 958 7517 40800006 3000 A 0 0 0 0 B 0 14 0 0 0 0 0 0 0 0 0 0 0 0 0 0 0 0 0 0 0 0 0 0 0 0 0 0 z_e_68
S 970 23 5 0 0 9 973 624 7524 0 0 A 0 0 0 0 B 0 34 0 0 0 0 0 0 0 0 0 0 0 0 0 0 0 0 0 0 0 0 0 0 0 0 0 0 read_arg
S 971 1 3 1 0 6 1 970 7533 4 3000 A 0 0 0 0 B 0 34 0 0 0 0 0 0 0 0 0 0 0 0 0 0 0 0 0 0 0 0 0 0 0 0 0 0 nth_arg
S 972 1 3 1 0 6 1 970 7541 4 3000 A 0 0 0 0 B 0 34 0 0 0 0 0 0 0 0 0 0 0 0 0 0 0 0 0 0 0 0 0 0 0 0 0 0 default
S 973 14 5 0 0 6 1 970 7524 4 400000 A 0 0 0 0 B 0 0 0 0 0 0 0 156 2 0 0 974 0 0 0 0 0 0 0 0 0 16 0 624 0 0 0 0 read_arg
F 973 2 971 972
S 974 1 3 0 0 6 1 970 7524 4 1003000 A 0 0 0 0 B 0 0 0 0 0 0 0 0 0 0 0 0 0 0 0 0 0 0 0 0 0 0 0 0 0 0 0 0 read_arg
S 975 23 5 0 0 9 976 624 7549 0 0 A 0 0 0 0 B 0 42 0 0 0 0 0 0 0 0 0 0 0 0 0 0 0 0 0 0 0 0 0 0 0 0 0 0 get_time
S 976 14 5 0 0 10 1 975 7549 4 400000 A 0 0 0 0 B 0 0 0 0 0 0 0 159 0 0 0 977 0 0 0 0 0 0 0 0 0 37 0 624 0 0 0 0 get_time
F 976 0
S 977 1 3 0 0 10 1 975 7549 4 1003000 A 0 0 0 0 B 0 0 0 0 0 0 0 0 0 0 0 0 0 0 0 0 0 0 0 0 0 0 0 0 0 0 0 0 get_time
A 55 1 0 0 0 7 964 0 0 0 0 0 0 0 0 0 0 0 0 0 0 0
A 56 1 0 0 0 7 962 0 0 0 0 0 0 0 0 0 0 0 0 0 0 0
A 57 1 0 0 0 7 965 0 0 0 0 0 0 0 0 0 0 0 0 0 0 0
A 58 1 0 0 0 7 963 0 0 0 0 0 0 0 0 0 0 0 0 0 0 0
A 59 1 0 0 0 7 968 0 0 0 0 0 0 0 0 0 0 0 0 0 0 0
A 60 1 0 0 0 7 966 0 0 0 0 0 0 0 0 0 0 0 0 0 0 0
A 61 1 0 0 0 7 969 0 0 0 0 0 0 0 0 0 0 0 0 0 0 0
A 62 1 0 0 0 7 967 0 0 0 0 0 0 0 0 0 0 0 0 0 0 0
Z
Z
